2018.11.28 05:01:00;11022;11022;11005;11010
2018.11.28 05:05:00;11018;11018;11013;11015
2018.11.28 05:06:00;11014;11018;11014;11015
2018.11.28 05:44:00;11023;11025;11023;11025
2018.11.28 05:45:00;11028;11028;11025;11027
2018.11.28 05:57:00;11018;11018;11018;11018
2018.11.28 05:58:00;11015;11015;11015;11015
2018.11.28 06:00:00;11017;11017;11015;11015
2018.11.28 06:01:00;11017;11018;11017;11017
2018.11.28 06:02:00;11018;11035;11018;11035
2018.11.28 06:03:00;11038;11038;11035;11038
2018.11.28 06:05:00;11035;11035;11035;11035
2018.11.28 06:10:00;11033;11033;11033;11033
2018.11.28 06:11:00;11034;11034;11033;11033
2018.11.28 06:12:00;11030;11030;11028;11028
2018.11.28 06:13:00;11027;11028;11027;11028
2018.11.28 06:14:00;11025;11025;11025;11025
2018.11.28 06:15:00;11028;11028;11028;11028
2018.11.28 06:18:00;11025;11025;11025;11025
2018.11.28 06:21:00;11030;11030;11028;11028
2018.11.28 06:22:00;11029;11033;11029;11030
2018.11.28 06:23:00;11032;11033;11032;11033
2018.11.28 06:25:00;11032;11034;11030;11033
2018.11.28 06:27:00;11032;11032;11028;11028
2018.11.28 06:29:00;11027;11027;11023;11024
2018.11.28 06:30:00;11025;11025;11023;11025
2018.11.28 06:31:00;11027;11027;11025;11025
2018.11.28 06:38:00;11028;11028;11028;11028
2018.11.28 06:41:00;11025;11025;11025;11025
2018.11.28 06:43:00;11028;11028;11028;11028
2018.11.28 06:44:00;11027;11028;11027;11028
2018.11.28 06:45:00;11025;11028;11025;11025
2018.11.28 06:46:00;11027;11028;11027;11028
2018.11.28 06:47:00;11027;11028;11025;11028
2018.11.28 06:48:00;11027;11028;11027;11028
2018.11.28 06:49:00;11030;11030;11030;11030
2018.11.28 06:51:00;11028;11028;11028;11028
2018.11.28 06:52:00;11027;11027;11027;11027
2018.11.28 06:53:00;11025;11028;11025;11028
2018.11.28 06:55:00;11030;11030;11029;11030
2018.11.28 06:56:00;11029;11030;11028;11028
2018.11.28 06:57:00;11029;11029;11028;11029
2018.11.28 06:58:00;11028;11029;11028;11028
2018.11.28 07:00:00;11030;11033;11020;11023
2018.11.28 07:01:00;11020;11028;11020;11025
2018.11.28 07:02:00;11028;11028;11025;11025
2018.11.28 07:03:00;11023;11030;11023;11028
2018.11.28 07:04:00;11027;11033;11023;11033
2018.11.28 07:05:00;11034;11035;11010;11013
2018.11.28 07:06:00;11010;11015;11010;11014
2018.11.28 07:07:00;11013;11018;11010;11014
2018.11.28 07:08:00;11013;11014;11010;11012
2018.11.28 07:09:00;11010;11015;11008;11015
2018.11.28 07:10:00;11013;11018;11013;11014
2018.11.28 07:11:00;11013;11015;11013;11015
2018.11.28 07:12:00;11014;11015;11008;11010
2018.11.28 07:13:00;11013;11013;11008;11008
2018.11.28 07:14:00;11010;11010;11008;11010
2018.11.28 07:15:00;11008;11008;11005;11005
2018.11.28 07:16:00;11007;11007;10998;10998
2018.11.28 07:17:00;11000;11000;10997;10998
2018.11.28 07:18:00;10999;11005;10998;11003
2018.11.28 07:19:00;11002;11005;11000;11003
2018.11.28 07:20:00;11002;11005;10999;11003
2018.11.28 07:21:00;11004;11008;11004;11008
2018.11.28 07:22:00;11009;11013;11009;11013
2018.11.28 07:23:00;11010;11019;11010;11018
2018.11.28 07:24:00;11017;11017;11012;11013
2018.11.28 07:25:00;11012;11012;11008;11008
2018.11.28 07:26:00;11010;11013;11010;11010
2018.11.28 07:27:00;11013;11013;11005;11005
2018.11.28 07:28:00;11008;11010;11005;11007
2018.11.28 07:29:00;11005;11010;11005;11008
2018.11.28 07:30:00;11005;11008;11003;11003
2018.11.28 07:31:00;11004;11015;11004;11015
2018.11.28 07:32:00;11013;11015;11010;11015
2018.11.28 07:33:00;11017;11018;11013;11015
2018.11.28 07:34:00;11017;11020;11015;11017
2018.11.28 07:35:00;11018;11018;10990;10999
2018.11.28 07:36:00;11000;11000;10995;10998
2018.11.28 07:37:00;10999;11003;10998;11000
2018.11.28 07:38:00;10998;10998;10989;10990
2018.11.28 07:39:00;10993;10998;10993;10997
2018.11.28 07:40:00;10998;11003;10995;11003
2018.11.28 07:41:00;11005;11005;10998;10999
2018.11.28 07:42:00;11000;11008;11000;11003
2018.11.28 07:43:00;11004;11004;11000;11000
2018.11.28 07:44:00;10999;11003;10993;10997
2018.11.28 07:45:00;10998;10998;10990;10993
2018.11.28 07:46:00;10994;10998;10993;10995
2018.11.28 07:47:00;10993;10993;10989;10993
2018.11.28 07:48:00;10995;11003;10995;11000
2018.11.28 07:49:00;10998;10999;10993;10993
2018.11.28 07:50:00;10994;11000;10993;10993
2018.11.28 07:51:00;10995;11000;10994;10998
2018.11.28 07:52:00;11000;11005;10999;11000
2018.11.28 07:53:00;10998;11000;10995;10998
2018.11.28 07:54:00;10995;10998;10995;10998
2018.11.28 07:55:00;10995;10995;10993;10993
2018.11.28 07:56:00;10995;11003;10995;11000
2018.11.28 07:57:00;11002;11005;11000;11000
2018.11.28 07:58:00;11003;11005;11003;11003
2018.11.28 07:59:00;11005;11018;11005;11013
2018.11.28 08:00:00;11010;11015;11008;11008
2018.11.28 08:01:00;11010;11017;11010;11015
2018.11.28 08:02:00;11013;11015;11010;11015
2018.11.28 08:03:00;11013;11013;11010;11010
2018.11.28 08:04:00;11008;11013;11005;11008
2018.11.28 08:05:00;11010;11012;11000;11003
2018.11.28 08:06:00;11002;11004;11000;11000
2018.11.28 08:07:00;10998;10998;10993;10993
2018.11.28 08:08:00;10995;10995;10990;10993
2018.11.28 08:09:00;10992;10994;10990;10993
2018.11.28 08:10:00;10995;10995;10993;10993
2018.11.28 08:11:00;10995;10995;10990;10995
2018.11.28 08:12:00;10998;10998;10994;10998
2018.11.28 08:13:00;11000;11000;10995;10995
2018.11.28 08:14:00;10998;11000;10995;11000
2018.11.28 08:15:00;10998;10998;10995;10998
2018.11.28 08:16:00;11000;11005;10998;11005
2018.11.28 08:17:00;11008;11010;11005;11005
2018.11.28 08:18:00;11008;11015;11007;11015
2018.11.28 08:19:00;11018;11018;11013;11015
2018.11.28 08:20:00;11013;11013;11010;11010
2018.11.28 08:21:00;11013;11013;11005;11008
2018.11.28 08:22:00;11007;11010;11005;11008
2018.11.28 08:23:00;11010;11013;11010;11010
2018.11.28 08:24:00;11012;11015;11010;11013
2018.11.28 08:25:00;11015;11023;11015;11018
2018.11.28 08:26:00;11020;11023;11018;11020
2018.11.28 08:27:00;11023;11024;11020;11023
2018.11.28 08:28:00;11025;11025;11020;11020
2018.11.28 08:29:00;11023;11025;11023;11025
2018.11.28 08:30:00;11028;11030;11023;11023
2018.11.28 08:31:00;11025;11027;11015;11015
2018.11.28 08:32:00;11017;11018;11015;11015
2018.11.28 08:33:00;11017;11017;11013;11013
2018.11.28 08:34:00;11010;11010;11000;11003
2018.11.28 08:35:00;11005;11005;11000;11000
2018.11.28 08:36:00;11003;11003;11000;11000
2018.11.28 08:37:00;11003;11003;11000;11000
2018.11.28 08:38:00;11002;11005;11002;11005
2018.11.28 08:39:00;11008;11008;11003;11005
2018.11.28 08:40:00;11003;11007;11003;11005
2018.11.28 08:41:00;11007;11009;11005;11008
2018.11.28 08:42:00;11009;11009;11007;11008
2018.11.28 08:43:00;11009;11010;11008;11010
2018.11.28 08:44:00;11008;11010;11008;11010
2018.11.28 08:45:00;11013;11018;11013;11018
2018.11.28 08:46:00;11015;11015;11013;11015
2018.11.28 08:47:00;11013;11015;11013;11014
2018.11.28 08:48:00;11015;11015;11013;11013
2018.11.28 08:49:00;11015;11018;11013;11018
2018.11.28 08:50:00;11015;11015;11013;11013
2018.11.28 08:51:00;11014;11018;11014;11015
2018.11.28 08:52:00;11014;11018;11014;11018
2018.11.28 08:53:00;11020;11020;11020;11020
2018.11.28 08:54:00;11018;11020;11018;11020
2018.11.28 08:55:00;11019;11019;11018;11018
2018.11.28 08:56:00;11019;11020;11018;11018
2018.11.28 08:57:00;11015;11017;11015;11015
2018.11.28 08:58:00;11013;11015;11013;11013
2018.11.28 08:59:00;11015;11015;11013;11015
2018.11.28 09:00:00;11013;11013;11010;11010
2018.11.28 09:01:00;11013;11013;11010;11010
2018.11.28 09:02:00;11008;11008;11008;11008
2018.11.28 09:03:00;11009;11010;11008;11010
2018.11.28 09:04:00;11013;11013;11013;11013
2018.11.28 09:05:00;11010;11010;11008;11008
2018.11.28 09:06:00;11005;11005;11005;11005
2018.11.28 09:08:00;11003;11003;11003;11003
2018.11.28 09:09:00;11005;11005;11005;11005
2018.11.28 09:10:00;11008;11010;11008;11010
2018.11.28 09:13:00;11008;11008;11008;11008
2018.11.28 09:15:00;11013;11013;11010;11012
2018.11.28 09:16:00;11013;11015;11013;11013
2018.11.28 09:17:00;11014;11018;11014;11015
2018.11.28 09:18:00;11018;11020;11018;11018
2018.11.28 09:19:00;11020;11023;11020;11020
2018.11.28 09:20:00;11023;11025;11023;11025
2018.11.28 09:21:00;11023;11023;11023;11023
2018.11.28 09:22:00;11024;11025;11024;11025
2018.11.28 09:24:00;11028;11030;11028;11030
2018.11.28 09:25:00;11033;11033;11025;11025
2018.11.28 09:26:00;11023;11025;11022;11023
2018.11.28 09:27:00;11020;11023;11020;11023
2018.11.28 09:29:00;11025;11025;11020;11020
2018.11.28 09:30:00;11023;11025;11022;11025
2018.11.28 09:31:00;11023;11028;11023;11028
2018.11.28 09:32:00;11030;11030;11028;11028
2018.11.28 09:33:00;11030;11030;11028;11028
2018.11.28 09:34:00;11025;11030;11025;11030
2018.11.28 09:35:00;11028;11030;11028;11030
2018.11.28 09:36:00;11028;11030;11028;11030
2018.11.28 09:37:00;11033;11033;11030;11030
2018.11.28 09:38:00;11032;11032;11028;11028
2018.11.28 09:39:00;11030;11033;11030;11030
2018.11.28 09:40:00;11029;11029;11028;11028
2018.11.28 09:41:00;11027;11028;11025;11028
2018.11.28 09:42:00;11029;11030;11025;11025
2018.11.28 09:43:00;11028;11028;11020;11020
2018.11.28 09:44:00;11023;11023;11020;11023
2018.11.28 09:45:00;11020;11023;11020;11022
2018.11.28 09:46:00;11020;11020;11015;11015
2018.11.28 09:47:00;11017;11018;11015;11018
2018.11.28 09:48:00;11020;11020;11019;11020
2018.11.28 09:49:00;11022;11023;11020;11023
2018.11.28 09:50:00;11022;11023;11020;11020
2018.11.28 09:51:00;11022;11022;11022;11022
2018.11.28 09:52:00;11023;11025;11022;11022
2018.11.28 09:53:00;11020;11023;11018;11020
2018.11.28 09:54:00;11022;11023;11020;11020
2018.11.28 09:55:00;11019;11019;11018;11018
2018.11.28 09:56:00;11019;11020;11018;11018
2018.11.28 09:57:00;11020;11020;11017;11017
2018.11.28 09:58:00;11015;11020;11015;11020
2018.11.28 09:59:00;11023;11023;11020;11023
2018.11.28 10:00:00;11022;11022;11014;11015
2018.11.28 10:01:00;11018;11018;11018;11018
2018.11.28 10:02:00;11019;11020;11018;11018
2018.11.28 10:03:00;11015;11015;11013;11013
2018.11.28 10:04:00;11010;11010;11003;11003
2018.11.28 10:05:00;11002;11003;10998;10998
2018.11.28 10:06:00;10995;10998;10993;10993
2018.11.28 10:07:00;10990;10993;10990;10990
2018.11.28 10:10:00;10992;10993;10990;10990
2018.11.28 10:11:00;10992;10993;10990;10992
2018.11.28 10:12:00;10993;10993;10988;10988
2018.11.28 10:13:00;10990;10990;10988;10988
2018.11.28 10:14:00;10989;10989;10988;10988
2018.11.28 10:15:00;10989;10989;10983;10983
2018.11.28 10:16:00;10982;10983;10980;10980
2018.11.28 10:17:00;10983;10983;10980;10980
2018.11.28 10:18:00;10983;10983;10980;10980
2018.11.28 10:19:00;10978;10978;10970;10970
2018.11.28 10:20:00;10968;10970;10965;10970
2018.11.28 10:21:00;10968;10970;10968;10970
2018.11.28 10:22:00;10973;10973;10970;10970
2018.11.28 10:23:00;10973;10973;10970;10970
2018.11.28 10:24:00;10972;10973;10970;10970
2018.11.28 10:25:00;10969;10969;10963;10963
2018.11.28 10:26:00;10962;10963;10960;10960
2018.11.28 10:27:00;10958;10963;10958;10963
2018.11.28 10:28:00;10962;10963;10960;10960
2018.11.28 10:29:00;10963;10965;10963;10963
2018.11.28 11:00:00;10960;10972;10960;10972
2018.11.28 11:01:00;10970;10973;10970;10973
2018.11.28 11:02:00;10975;10975;10973;10974
2018.11.28 11:03:00;10973;10973;10959;10963
2018.11.28 11:04:00;10965;10965;10963;10965
2018.11.28 11:05:00;10967;10968;10967;10968
2018.11.28 11:06:00;10970;10973;10970;10973
2018.11.28 11:07:00;10972;10973;10970;10973
2018.11.28 11:08:00;10972;10972;10970;10970
2018.11.28 11:09:00;10972;10973;10972;10972
2018.11.28 11:10:00;10973;10973;10972;10972
2018.11.28 11:11:00;10970;10973;10970;10973
2018.11.28 11:13:00;10975;10975;10975;10975
2018.11.28 11:15:00;10978;10978;10974;10975
2018.11.28 11:16:00;10974;10975;10973;10975
2018.11.28 11:17:00;10978;10978;10978;10978
2018.11.28 11:18:00;10979;10979;10979;10979
2018.11.28 11:19:00;10980;10980;10978;10978
2018.11.28 11:21:00;10979;10979;10978;10978
2018.11.28 11:22:00;10980;10980;10978;10978
2018.11.28 11:25:00;10977;10978;10977;10978
2018.11.28 11:31:00;10977;10978;10977;10978
2018.11.28 11:35:00;10980;10980;10978;10978
2018.11.28 11:41:00;10975;10978;10975;10978
2018.11.28 11:42:00;10975;10975;10973;10973
2018.11.28 11:45:00;10975;10975;10974;10974
2018.11.28 11:46:00;10973;10974;10973;10974
2018.11.28 11:47:00;10973;10974;10973;10973
2018.11.28 11:48:00;10974;10975;10973;10975
2018.11.28 11:49:00;10974;10974;10973;10974
2018.11.28 11:50:00;10975;10980;10975;10979
2018.11.28 11:51:00;10980;10980;10980;10980
2018.11.28 11:52:00;10979;10979;10979;10979
2018.11.28 11:53:00;10980;10980;10978;10978
2018.11.28 11:54:00;10979;10980;10978;10979
2018.11.28 11:55:00;10980;10980;10980;10980
2018.11.28 11:56:00;10978;10978;10977;10978
2018.11.28 12:00:00;10979;10979;10979;10979
2018.11.28 12:01:00;10978;10980;10978;10979
2018.11.28 12:02:00;10978;10978;10978;10978
2018.11.28 12:03:00;10975;10975;10974;10974
2018.11.28 12:04:00;10973;10978;10973;10977
2018.11.28 12:05:00;10975;10978;10975;10977
2018.11.28 12:06:00;10975;10979;10975;10979
2018.11.28 12:07:00;10978;10978;10978;10978
2018.11.28 12:08:00;10979;10979;10978;10978
2018.11.28 12:09:00;10979;10979;10978;10979
2018.11.28 12:11:00;10978;10979;10978;10979
2018.11.28 12:12:00;10980;10980;10980;10980
2018.11.28 12:13:00;10978;10978;10978;10978
2018.11.28 12:14:00;10977;10977;10975;10975
2018.11.28 12:15:00;10977;10978;10977;10978
2018.11.28 12:16:00;10979;10979;10979;10979
2018.11.28 12:17:00;10980;10980;10978;10980
2018.11.28 12:22:00;10983;10983;10978;10978
2018.11.28 12:23:00;10979;10980;10979;10979
2018.11.28 12:24:00;10978;10978;10978;10978
2018.11.28 12:27:00;10979;10980;10978;10978
2018.11.28 12:30:00;10975;10979;10975;10979
2018.11.28 12:31:00;10980;10980;10978;10980
2018.11.28 12:33:00;10983;10983;10983;10983
2018.11.28 12:34:00;10982;10984;10982;10983
2018.11.28 12:35:00;10984;10984;10983;10983
2018.11.28 12:36:00;10985;10985;10985;10985
2018.11.28 12:38:00;10988;10988;10985;10985
2018.11.28 12:39:00;10988;10988;10985;10988
2018.11.28 12:40:00;10990;10990;10988;10988
2018.11.28 12:50:00;10990;10990;10990;10990
2018.11.28 12:51:00;10988;10989;10988;10988
2018.11.28 12:55:00;10985;10987;10985;10987
2018.11.28 12:56:00;10989;10990;10988;10990
2018.11.28 12:57:00;10988;10993;10988;10993
2018.11.28 12:58:00;10990;10992;10989;10990
2018.11.28 12:59:00;10988;10990;10988;10990
2018.11.28 13:01:00;10989;10990;10985;10988
2018.11.28 13:02:00;10989;10989;10988;10988
2018.11.28 13:04:00;10989;10989;10989;10989
2018.11.28 13:05:00;10988;10988;10985;10985
2018.11.28 13:06:00;10984;10985;10983;10985
2018.11.28 13:11:00;10988;10990;10988;10990
2018.11.28 13:12:00;10988;10988;10988;10988
2018.11.28 13:13:00;10985;10985;10984;10984
2018.11.28 13:14:00;10983;10984;10983;10984
2018.11.28 13:15:00;10983;10985;10983;10984
2018.11.28 13:17:00;10983;10984;10983;10984
2018.11.28 13:18:00;10983;10985;10983;10985
2018.11.28 13:19:00;10984;10984;10983;10984
2018.11.28 13:20:00;10985;10985;10984;10985
2018.11.28 13:22:00;10984;10984;10983;10984
2018.11.28 13:23:00;10983;10984;10983;10984
2018.11.28 13:24:00;10983;10984;10983;10984
2018.11.28 13:25:00;10983;10984;10983;10983
2018.11.28 13:26:00;10984;10985;10984;10985
2018.11.28 13:27:00;10984;10984;10984;10984
2018.11.28 13:28:00;10983;10984;10983;10984
2018.11.28 13:29:00;10985;10985;10983;10984
2018.11.28 13:30:00;10983;10984;10983;10984
2018.11.28 13:31:00;10983;10985;10983;10985
2018.11.28 13:32:00;10984;10985;10983;10984
2018.11.28 13:33:00;10983;10985;10983;10985
2018.11.28 13:34:00;10988;10988;10988;10988
2018.11.28 13:35:00;10987;10987;10985;10987
2018.11.28 13:36:00;10988;10988;10987;10987
2018.11.28 13:37:00;10988;10988;10987;10987
2018.11.28 13:38:00;10988;10988;10988;10988
2018.11.28 13:39:00;10987;10987;10985;10985
2018.11.28 13:40:00;10987;10987;10985;10985
2018.11.28 13:42:00;10987;10988;10985;10987
2018.11.28 13:43:00;10988;10988;10987;10988
2018.11.28 13:46:00;10987;10988;10987;10988
2018.11.28 13:47:00;10990;10990;10988;10989
2018.11.28 13:48:00;10990;10990;10989;10989
2018.11.28 13:49:00;10990;10990;10988;10988
2018.11.28 13:51:00;10985;10988;10985;10988
2018.11.28 13:52:00;10989;10989;10989;10989
2018.11.28 13:53:00;10988;10988;10985;10988
2018.11.28 13:54:00;10987;10989;10987;10989
2018.11.28 13:55:00;10988;10988;10988;10988
2018.11.28 13:56:00;10987;10988;10987;10987
2018.11.28 13:57:00;10988;10989;10987;10988
2018.11.28 13:58:00;10989;10989;10988;10988
2018.11.28 13:59:00;10989;10993;10989;10992
2018.11.28 14:00:00;10993;10995;10992;10993
2018.11.28 14:01:00;10992;10993;10992;10993
2018.11.28 14:02:00;10990;10992;10989;10989
2018.11.28 14:03:00;10988;10989;10988;10989
2018.11.28 14:04:00;10988;10990;10988;10989
2018.11.28 14:06:00;10988;10990;10988;10989
2018.11.28 14:07:00;10988;10989;10988;10989
2018.11.28 14:08:00;10990;10990;10989;10989
2018.11.28 14:11:00;10990;10990;10989;10989
2018.11.28 14:12:00;10990;10990;10989;10989
2018.11.28 14:13:00;10990;10990;10990;10990
2018.11.28 14:14:00;10989;10990;10989;10990
2018.11.28 14:15:00;10989;10990;10989;10990
2018.11.28 14:17:00;10993;10993;10992;10993
2018.11.28 14:18:00;10994;10994;10993;10993
2018.11.28 14:20:00;10994;10995;10994;10995
2018.11.28 14:21:00;10998;10998;10995;10995
2018.11.28 14:22:00;10997;10998;10995;10998
2018.11.28 14:26:00;10997;10997;10997;10997
2018.11.28 14:27:00;10995;10998;10995;10998
2018.11.28 14:29:00;10997;10997;10995;10997
2018.11.28 14:30:00;10995;10997;10993;10993
2018.11.28 14:32:00;10994;10997;10994;10997
2018.11.28 14:33:00;10998;10998;10995;10995
2018.11.28 14:34:00;10998;10998;10997;10997
2018.11.28 14:35:00;10995;10997;10995;10995
2018.11.28 14:36:00;10994;10994;10994;10994
2018.11.28 14:37:00;10995;10995;10994;10995
2018.11.28 14:38:00;10998;10998;10998;10998
2018.11.28 14:40:00;10995;10997;10995;10997
2018.11.28 14:41:00;10998;10998;10997;10997
2018.11.28 14:42:00;10995;10997;10995;10997
2018.11.28 14:43:00;10995;10995;10995;10995
2018.11.28 14:45:00;10993;10994;10993;10993
2018.11.28 14:46:00;10994;10994;10993;10993
2018.11.28 14:49:00;10994;10994;10993;10993
2018.11.28 14:50:00;10994;10994;10994;10994
2018.11.28 14:51:00;10995;10995;10995;10995
2018.11.28 14:52:00;10994;10995;10993;10995
2018.11.28 14:53:00;10994;10994;10994;10994
2018.11.28 14:54:00;10993;10994;10990;10994
2018.11.28 14:55:00;10993;10995;10993;10993
2018.11.28 14:56:00;10995;10995;10993;10993
2018.11.28 14:57:00;10994;10994;10993;10993
2018.11.28 14:59:00;10994;10994;10994;10994
2018.11.28 15:00:00;10993;10993;10992;10992
2018.11.28 15:01:00;10993;10993;10992;10993
2018.11.28 15:04:00;10994;10995;10993;10993
2018.11.28 15:06:00;10995;10995;10993;10994
2018.11.28 15:07:00;10993;10993;10993;10993
2018.11.28 15:08:00;10994;10995;10994;10995
2018.11.28 15:12:00;10993;10993;10990;10990
2018.11.28 15:13:00;10988;10988;10988;10988
2018.11.28 15:14:00;10990;10990;10990;10990
2018.11.28 15:19:00;10988;10990;10988;10990
2018.11.28 15:22:00;10993;10993;10992;10993
2018.11.28 15:23:00;10992;10993;10990;10993
2018.11.28 15:24:00;10992;10992;10992;10992
2018.11.28 15:25:00;10993;10993;10992;10993
2018.11.28 15:27:00;10992;10992;10992;10992
2018.11.28 15:28:00;10993;10993;10993;10993
2018.11.28 15:29:00;10992;10993;10992;10993
2018.11.28 15:30:00;10995;10995;10994;10994
2018.11.28 15:31:00;10993;10993;10993;10993
2018.11.28 15:32:00;10994;10995;10994;10995
2018.11.28 15:33:00;10997;10998;10997;10998
2018.11.28 15:35:00;10997;10997;10995;10995
2018.11.28 15:36:00;10993;10993;10990;10990
2018.11.28 15:37:00;10993;10995;10993;10993
2018.11.28 15:38:00;10994;10995;10994;10994
2018.11.28 15:39:00;10995;10997;10995;10995
2018.11.28 15:40:00;10994;10994;10993;10994
2018.11.28 15:41:00;10993;10994;10993;10994
2018.11.28 15:42:00;10995;10995;10994;10994
2018.11.28 15:43:00;10995;10997;10995;10997
2018.11.28 15:44:00;10998;10998;10995;10997
2018.11.28 15:45:00;10998;10998;10995;10997
2018.11.28 15:46:00;10998;10998;10997;10997
2018.11.28 15:47:00;10995;10999;10995;10997
2018.11.28 15:49:00;10998;10998;10997;10997
2018.11.28 15:50:00;10995;10998;10995;10998
2018.11.28 15:51:00;10997;10998;10997;10998
2018.11.28 15:52:00;11000;11000;11000;11000
2018.11.28 15:54:00;10999;11000;10998;11000
2018.11.28 15:55:00;11002;11002;11000;11000
2018.11.28 15:57:00;11003;11005;11002;11005
2018.11.28 15:58:00;11004;11005;11004;11005
2018.11.28 15:59:00;11004;11008;11004;11008
2018.11.28 16:00:00;11004;11010;11004;11010
2018.11.28 16:01:00;11009;11013;11009;11012
2018.11.28 16:02:00;11010;11013;11010;11010
2018.11.28 16:03:00;11012;11012;11005;11008
2018.11.28 16:04:00;11007;11008;11005;11008
2018.11.28 16:06:00;11005;11005;11005;11005
2018.11.28 16:07:00;11003;11005;11003;11005
2018.11.28 16:08:00;11008;11008;11005;11005
2018.11.28 16:09:00;11007;11008;11007;11008
2018.11.28 16:10:00;11007;11008;11007;11008
2018.11.28 16:11:00;11005;11008;11005;11008
2018.11.28 16:12:00;11010;11010;11008;11008
2018.11.28 16:13:00;11009;11009;11008;11008
2018.11.28 16:15:00;11007;11007;11002;11002
2018.11.28 16:16:00;11003;11005;11002;11005
2018.11.28 16:18:00;11003;11005;11003;11005
2018.11.28 16:19:00;11003;11003;11003;11003
2018.11.28 16:20:00;11002;11003;11002;11003
2018.11.28 16:21:00;11004;11005;11003;11004
2018.11.28 16:22:00;11005;11008;11005;11008
2018.11.28 16:24:00;11010;11010;11007;11007
2018.11.28 16:25:00;11008;11009;11007;11009
2018.11.28 16:26:00;11008;11010;11008;11008
2018.11.28 16:27:00;11009;11010;11008;11010
2018.11.28 16:28:00;11008;11010;11008;11010
2018.11.28 16:29:00;11012;11013;11012;11013
2018.11.28 16:30:00;11010;11018;11010;11015
2018.11.28 16:31:00;11013;11013;11005;11010
2018.11.28 16:32:00;11009;11009;11005;11005
2018.11.28 16:33:00;11007;11008;11004;11005
2018.11.28 16:34:00;11004;11008;11003;11003
2018.11.28 16:35:00;11004;11007;11000;11003
2018.11.28 16:36:00;11004;11008;11003;11007
2018.11.28 16:37:00;11008;11013;11008;11013
2018.11.28 16:38:00;11015;11015;11012;11013
2018.11.28 16:39:00;11015;11018;11013;11014
2018.11.28 16:40:00;11015;11017;11010;11010
2018.11.28 16:41:00;11012;11012;11005;11007
2018.11.28 16:42:00;11008;11008;11005;11005
2018.11.28 16:43:00;11007;11008;11005;11005
2018.11.28 16:44:00;11003;11003;10998;10998
2018.11.28 16:45:00;10999;11003;10995;10997
2018.11.28 16:46:00;10998;10998;10990;10992
2018.11.28 16:47:00;10993;10994;10990;10994
2018.11.28 16:48:00;10998;11003;10997;11002
2018.11.28 16:49:00;11000;11003;11000;11002
2018.11.28 16:50:00;11003;11005;11003;11005
2018.11.28 16:51:00;11007;11007;11003;11004
2018.11.28 16:52:00;11005;11005;10997;10997
2018.11.28 16:53:00;10998;10998;10995;10997
2018.11.28 16:54:00;10995;10998;10988;10990
2018.11.28 16:55:00;10992;10997;10990;10993
2018.11.28 16:56:00;10992;10997;10992;10995
2018.11.28 16:57:00;10993;10995;10990;10995
2018.11.28 16:58:00;10994;10995;10993;10995
2018.11.28 16:59:00;10993;10995;10993;10995
2018.11.28 17:00:00;10994;11003;10994;11003
2018.11.28 17:01:00;11000;11003;10998;10998
2018.11.28 17:02:00;11000;11003;10995;11002
2018.11.28 17:03:00;11003;11003;10999;10999
2018.11.28 17:04:00;11000;11000;10998;10998
2018.11.28 17:05:00;11000;11000;10995;10997
2018.11.28 17:06:00;10998;10998;10995;10998
2018.11.28 17:07:00;10995;10995;10992;10993
2018.11.28 17:08:00;10990;10993;10990;10993
2018.11.28 17:09:00;10994;10995;10993;10994
2018.11.28 17:10:00;10995;10995;10992;10993
2018.11.28 17:11:00;10990;10993;10990;10993
2018.11.28 17:12:00;10995;10995;10993;10994
2018.11.28 17:13:00;10995;10995;10990;10993
2018.11.28 17:14:00;10992;10993;10992;10993
2018.11.28 17:15:00;10990;10995;10990;10994
2018.11.28 17:16:00;10995;10997;10995;10995
2018.11.28 17:17:00;10998;10998;10993;10995
2018.11.28 17:18:00;10994;10995;10994;10994
2018.11.28 17:19:00;10995;10995;10994;10995
2018.11.28 17:20:00;10997;10998;10997;10998
2018.11.28 17:21:00;10995;10995;10995;10995
2018.11.28 17:22:00;10997;10998;10997;10998
2018.11.28 17:23:00;10999;11000;10995;10995
2018.11.28 17:24:00;10997;10999;10995;10998
2018.11.28 17:25:00;10999;10999;10995;10995
2018.11.28 17:26:00;10998;10998;10995;10998
2018.11.28 17:27:00;10997;10997;10993;10993
2018.11.28 17:28:00;10990;10993;10989;10993
2018.11.28 17:30:00;10992;10993;10988;10989
2018.11.28 17:31:00;10990;10990;10987;10987
2018.11.28 17:32:00;10988;10988;10984;10985
2018.11.28 17:33:00;10988;10988;10985;10988
2018.11.28 17:34:00;10989;10993;10988;10993
2018.11.28 17:35:00;10994;10995;10990;10995
2018.11.28 17:36:00;10997;10998;10995;10995
2018.11.28 17:37:00;10998;10998;10993;10993
2018.11.28 17:38:00;10994;10995;10993;10995
2018.11.28 17:39:00;10997;10997;10992;10994
2018.11.28 17:40:00;10995;10995;10990;10992
2018.11.28 17:41:00;10993;10993;10988;10988
2018.11.28 17:42:00;10989;10990;10985;10990
2018.11.28 17:43:00;10989;10993;10987;10993
2018.11.28 17:44:00;10994;10995;10993;10993
2018.11.28 17:45:00;10994;10995;10993;10993
2018.11.28 17:46:00;10995;10998;10995;10998
2018.11.28 17:47:00;10997;11000;10997;10998
2018.11.28 17:48:00;10997;10997;10995;10997
2018.11.28 17:49:00;10998;11000;10998;10999
2018.11.28 17:50:00;11000;11000;10999;11000
2018.11.28 17:51:00;10998;11002;10998;11000
2018.11.28 17:52:00;11003;11003;11003;11003
2018.11.28 17:53:00;11000;11000;10999;11000
2018.11.28 17:54:00;11003;11003;11000;11000
2018.11.28 17:55:00;11003;11005;11003;11005
2018.11.28 17:56:00;11003;11003;11003;11003
2018.11.28 17:57:00;11005;11005;11003;11005
2018.11.28 17:58:00;11008;11008;11005;11007
2018.11.28 17:59:00;11008;11010;11008;11008
2018.11.28 18:00:00;11009;11015;11009;11014
2018.11.28 18:01:00;11013;11015;11013;11015
2018.11.28 18:02:00;11013;11018;11013;11017
2018.11.28 18:03:00;11015;11018;11015;11015
2018.11.28 18:04:00;11013;11013;11010;11010
2018.11.28 18:05:00;11012;11015;11010;11013
2018.11.28 18:06:00;11012;11018;11012;11018
2018.11.28 18:07:00;11017;11020;11015;11020
2018.11.28 18:09:00;11023;11023;11020;11020
2018.11.28 18:10:00;11022;11022;11020;11020
2018.11.28 18:11:00;11023;11023;11022;11022
2018.11.28 18:12:00;11023;11023;11023;11023
2018.11.28 18:13:00;11022;11024;11022;11024
2018.11.28 18:14:00;11025;11025;11024;11024
2018.11.28 18:15:00;11025;11025;11023;11025
2018.11.28 18:16:00;11024;11025;11023;11025
2018.11.28 18:17:00;11024;11024;11023;11023
2018.11.28 18:18:00;11024;11024;11023;11024
2018.11.28 18:19:00;11025;11025;11023;11023
2018.11.28 18:20:00;11025;11025;11025;11025
2018.11.28 18:21:00;11023;11025;11023;11025
2018.11.28 18:22:00;11027;11027;11025;11025
2018.11.28 18:23:00;11024;11025;11023;11024
2018.11.28 18:24:00;11025;11025;11018;11019
2018.11.28 18:25:00;11020;11023;11019;11022
2018.11.28 18:26:00;11023;11023;11019;11020
2018.11.28 18:27:00;11022;11023;11019;11022
2018.11.28 18:28:00;11023;11025;11023;11024
2018.11.28 18:29:00;11025;11025;11025;11025
2018.11.28 18:30:00;11027;11027;11024;11024
2018.11.28 18:31:00;11025;11027;11025;11027
2018.11.28 18:32:00;11028;11028;11027;11027
2018.11.28 18:33:00;11028;11033;11028;11033
2018.11.28 18:34:00;11030;11035;11030;11033
2018.11.28 18:35:00;11035;11038;11033;11035
2018.11.28 18:36:00;11038;11038;11038;11038
2018.11.28 18:38:00;11035;11038;11035;11038
2018.11.28 18:39:00;11037;11038;11037;11037
2018.11.28 18:40:00;11038;11038;11033;11034
2018.11.28 18:41:00;11035;11035;11032;11032
2018.11.28 18:42:00;11033;11035;11033;11034
2018.11.28 18:43:00;11035;11035;11035;11035
2018.11.28 18:45:00;11034;11034;11034;11034
2018.11.28 18:46:00;11035;11035;11033;11033
2018.11.28 18:48:00;11034;11035;11032;11032
2018.11.28 18:49:00;11033;11033;11030;11033
2018.11.28 18:50:00;11035;11035;11029;11029
2018.11.28 18:51:00;11030;11030;11030;11030
2018.11.28 18:52:00;11032;11037;11032;11035
2018.11.28 18:53:00;11034;11034;11030;11030
2018.11.28 18:54:00;11029;11029;11028;11028
2018.11.28 18:55:00;11030;11030;11030;11030
2018.11.28 18:56:00;11033;11033;11025;11025
2018.11.28 18:57:00;11023;11023;11018;11023
2018.11.28 18:58:00;11025;11028;11024;11027
2018.11.28 18:59:00;11028;11028;11024;11025
2018.11.28 19:00:00;11028;11063;11028;11062
2018.11.28 19:01:00;11065;11078;11063;11077
2018.11.28 19:02:00;11078;11095;11078;11093
2018.11.28 19:03:00;11095;11095;11083;11089
2018.11.28 19:04:00;11090;11097;11088;11088
2018.11.28 19:05:00;11089;11098;11088;11092
2018.11.28 19:06:00;11093;11100;11089;11100
2018.11.28 19:07:00;11103;11123;11102;11118
2018.11.28 19:08:00;11119;11130;11119;11130
2018.11.28 19:09:00;11133;11135;11125;11134
2018.11.28 19:10:00;11135;11135;11128;11128
2018.11.28 19:11:00;11130;11132;11120;11124
2018.11.28 19:12:00;11125;11125;11115;11117
2018.11.28 19:13:00;11118;11124;11117;11124
2018.11.28 19:14:00;11123;11125;11120;11125
2018.11.28 19:15:00;11124;11128;11122;11122
2018.11.28 19:16:00;11123;11124;11118;11120
2018.11.28 19:17:00;11118;11120;11113;11119
2018.11.28 19:18:00;11120;11120;11115;11115
2018.11.28 19:19:00;11117;11120;11117;11119
2018.11.28 19:20:00;11120;11132;11120;11128
2018.11.28 19:21:00;11129;11138;11129;11137
2018.11.28 19:22:00;11135;11138;11130;11130
2018.11.28 19:23:00;11133;11133;11127;11130
2018.11.28 19:24:00;11133;11133;11128;11128
2018.11.28 19:25:00;11125;11127;11123;11125
2018.11.28 19:26:00;11127;11128;11119;11119
2018.11.28 19:27:00;11120;11128;11118;11120
2018.11.28 19:28:00;11122;11134;11122;11134
2018.11.28 19:29:00;11133;11142;11133;11137
2018.11.28 19:30:00;11135;11140;11130;11132
2018.11.28 19:31:00;11130;11139;11130;11139
2018.11.28 19:32:00;11140;11143;11138;11138
2018.11.28 19:33:00;11139;11143;11137;11140
2018.11.28 19:34:00;11139;11139;11130;11133
2018.11.28 19:35:00;11132;11135;11130;11130
2018.11.28 19:36:00;11133;11133;11125;11128
2018.11.28 19:37:00;11129;11132;11128;11130
2018.11.28 19:38:00;11133;11133;11127;11127
2018.11.28 19:39:00;11128;11139;11128;11139
2018.11.28 19:40:00;11138;11138;11130;11130
2018.11.28 19:41:00;11128;11128;11128;11128
2018.11.28 19:42:00;11129;11135;11129;11130
2018.11.28 19:43:00;11128;11135;11125;11134
2018.11.28 19:44:00;11135;11138;11135;11137
2018.11.28 19:45:00;11138;11140;11137;11139
2018.11.28 19:46:00;11140;11142;11135;11137
2018.11.28 19:47:00;11138;11143;11138;11140
2018.11.28 19:48:00;11142;11143;11138;11140
2018.11.28 19:49:00;11142;11145;11140;11142
2018.11.28 19:50:00;11143;11145;11139;11140
2018.11.28 19:51:00;11142;11147;11138;11145
2018.11.28 19:52:00;11144;11145;11142;11143
2018.11.28 19:53:00;11140;11150;11140;11145
2018.11.28 19:54:00;11147;11147;11143;11143
2018.11.28 19:55:00;11144;11148;11139;11139
2018.11.28 19:56:00;11140;11144;11140;11143
2018.11.28 19:57:00;11140;11144;11138;11139
2018.11.28 19:58:00;11138;11142;11135;11135
2018.11.28 19:59:00;11137;11142;11137;11137
2018.11.28 20:00:00;11138;11142;11130;11132
2018.11.28 20:01:00;11133;11133;11130;11132
2018.11.28 20:02:00;11130;11132;11129;11129
2018.11.28 20:03:00;11128;11129;11120;11120
2018.11.28 20:04:00;11122;11122;11118;11119
2018.11.28 20:05:00;11118;11123;11118;11123
2018.11.28 20:06:00;11122;11122;11118;11118
2018.11.28 20:07:00;11119;11123;11119;11123
2018.11.28 20:08:00;11125;11137;11125;11137
2018.11.28 20:09:00;11135;11135;11135;11135
2018.11.28 20:10:00;11134;11135;11134;11135
2018.11.28 20:12:00;11134;11137;11134;11135
2018.11.28 20:13:00;11138;11142;11138;11142
2018.11.28 20:14:00;11144;11148;11143;11143
2018.11.28 20:16:00;11144;11145;11144;11145
2018.11.28 20:17:00;11148;11152;11148;11150
2018.11.28 20:18:00;11152;11152;11148;11148
2018.11.28 20:19:00;11150;11150;11148;11148
2018.11.28 20:21:00;11147;11148;11145;11148
2018.11.28 20:22:00;11147;11148;11145;11145
2018.11.28 20:25:00;11144;11148;11144;11148
2018.11.28 20:26:00;11147;11147;11143;11143
2018.11.28 20:27:00;11142;11142;11135;11135
2018.11.28 20:28:00;11134;11140;11134;11138
2018.11.28 20:29:00;11135;11140;11135;11140
2018.11.28 20:30:00;11143;11143;11142;11143
2018.11.28 20:31:00;11145;11145;11143;11143
2018.11.28 20:32:00;11142;11145;11139;11140
2018.11.28 20:33:00;11143;11143;11138;11138
2018.11.28 20:35:00;11140;11142;11140;11140
2018.11.28 20:36:00;11143;11145;11143;11145
2018.11.28 20:37:00;11147;11152;11147;11150
2018.11.28 20:40:00;11149;11152;11148;11150
2018.11.28 20:42:00;11153;11153;11150;11153
2018.11.28 20:43:00;11154;11154;11153;11153
2018.11.28 20:46:00;11154;11155;11153;11155
2018.11.28 20:49:00;11153;11153;11153;11153
2018.11.28 20:50:00;11152;11152;11145;11145
2018.11.28 20:51:00;11147;11150;11145;11148
2018.11.28 20:52:00;11150;11150;11150;11150
2018.11.28 20:53:00;11145;11145;11143;11145
2018.11.28 20:55:00;11148;11152;11148;11150
2018.11.28 20:56:00;11152;11153;11150;11150
