2018.11.28 23:59:00;1.32759;1.32764;1.32740;1.32740
2018.11.29 00:00:00;1.32716;1.32747;1.32716;1.32717
2018.11.29 00:01:00;1.32716;1.32736;1.32711;1.32736
2018.11.29 00:02:00;1.32736;1.32736;1.32736;1.32736
2018.11.29 00:03:00;1.32744;1.32744;1.32744;1.32744
2018.11.29 00:04:00;1.32744;1.32744;1.32678;1.32695
2018.11.29 00:05:00;1.32685;1.32720;1.32683;1.32710
2018.11.29 00:06:00;1.32710;1.32716;1.32709;1.32713
2018.11.29 00:07:00;1.32708;1.32754;1.32705;1.32724
2018.11.29 00:08:00;1.32724;1.32729;1.32719;1.32721
2018.11.29 00:09:00;1.32721;1.32724;1.32717;1.32717
2018.11.29 00:10:00;1.32717;1.32723;1.32716;1.32720
2018.11.29 00:11:00;1.32722;1.32722;1.32720;1.32720
2018.11.29 00:12:00;1.32722;1.32722;1.32722;1.32722
2018.11.29 00:13:00;1.32722;1.32722;1.32699;1.32701
2018.11.29 00:15:00;1.32701;1.32701;1.32699;1.32699
2018.11.29 00:17:00;1.32700;1.32702;1.32700;1.32702
2018.11.29 00:18:00;1.32701;1.32702;1.32701;1.32702
2018.11.29 00:19:00;1.32694;1.32721;1.32694;1.32721
2018.11.29 00:20:00;1.32723;1.32746;1.32713;1.32717
2018.11.29 00:21:00;1.32717;1.32718;1.32711;1.32718
2018.11.29 00:22:00;1.32741;1.32741;1.32741;1.32741
2018.11.29 00:23:00;1.32741;1.32741;1.32741;1.32741
2018.11.29 00:24:00;1.32721;1.32721;1.32721;1.32721
2018.11.29 00:25:00;1.32720;1.32720;1.32720;1.32720
2018.11.29 00:26:00;1.32716;1.32716;1.32716;1.32716
2018.11.29 00:27:00;1.32741;1.32741;1.32716;1.32741
2018.11.29 00:28:00;1.32715;1.32715;1.32715;1.32715
2018.11.29 00:29:00;1.32714;1.32715;1.32714;1.32714
2018.11.29 00:30:00;1.32715;1.32715;1.32713;1.32713
2018.11.29 00:34:00;1.32713;1.32716;1.32690;1.32710
2018.11.29 00:35:00;1.32711;1.32729;1.32710;1.32724
2018.11.29 00:36:00;1.32725;1.32725;1.32724;1.32724
2018.11.29 00:37:00;1.32725;1.32725;1.32724;1.32724
2018.11.29 00:38:00;1.32725;1.32725;1.32724;1.32724
2018.11.29 00:39:00;1.32721;1.32722;1.32720;1.32721
2018.11.29 00:40:00;1.32720;1.32725;1.32708;1.32708
2018.11.29 00:42:00;1.32711;1.32711;1.32709;1.32709
2018.11.29 00:43:00;1.32709;1.32712;1.32709;1.32712
2018.11.29 00:44:00;1.32711;1.32711;1.32711;1.32711
2018.11.29 00:45:00;1.32717;1.32719;1.32717;1.32719
2018.11.29 00:46:00;1.32719;1.32719;1.32719;1.32719
2018.11.29 00:47:00;1.32719;1.32719;1.32719;1.32719
2018.11.29 00:48:00;1.32719;1.32719;1.32719;1.32719
2018.11.29 00:49:00;1.32719;1.32719;1.32713;1.32719
2018.11.29 00:50:00;1.32719;1.32719;1.32719;1.32719
2018.11.29 00:51:00;1.32719;1.32719;1.32717;1.32719
2018.11.29 00:52:00;1.32719;1.32719;1.32713;1.32717
2018.11.29 00:53:00;1.32717;1.32718;1.32717;1.32718
2018.11.29 00:54:00;1.32717;1.32718;1.32707;1.32710
2018.11.29 00:55:00;1.32707;1.32718;1.32706;1.32715
2018.11.29 00:56:00;1.32714;1.32714;1.32713;1.32714
2018.11.29 00:57:00;1.32715;1.32719;1.32715;1.32719
2018.11.29 00:58:00;1.32719;1.32720;1.32716;1.32719
2018.11.29 00:59:00;1.32718;1.32725;1.32710;1.32724
2018.11.29 01:00:00;1.32723;1.32723;1.32673;1.32703
2018.11.29 01:01:00;1.32704;1.32712;1.32698;1.32712
2018.11.29 01:02:00;1.32712;1.32726;1.32709;1.32726
2018.11.29 01:03:00;1.32725;1.32729;1.32717;1.32721
2018.11.29 01:04:00;1.32722;1.32724;1.32716;1.32718
2018.11.29 01:05:00;1.32720;1.32723;1.32718;1.32719
2018.11.29 01:06:00;1.32718;1.32718;1.32716;1.32718
2018.11.29 01:07:00;1.32717;1.32717;1.32714;1.32716
2018.11.29 01:08:00;1.32715;1.32717;1.32711;1.32715
2018.11.29 01:09:00;1.32716;1.32719;1.32714;1.32717
2018.11.29 01:10:00;1.32716;1.32718;1.32712;1.32714
2018.11.29 01:11:00;1.32714;1.32715;1.32710;1.32714
2018.11.29 01:12:00;1.32713;1.32713;1.32709;1.32710
2018.11.29 01:13:00;1.32711;1.32713;1.32708;1.32709
2018.11.29 01:14:00;1.32709;1.32713;1.32702;1.32709
2018.11.29 01:15:00;1.32708;1.32713;1.32698;1.32707
2018.11.29 01:16:00;1.32708;1.32713;1.32696;1.32712
2018.11.29 01:17:00;1.32709;1.32713;1.32703;1.32709
2018.11.29 01:18:00;1.32710;1.32715;1.32708;1.32710
2018.11.29 01:19:00;1.32711;1.32712;1.32705;1.32709
2018.11.29 01:20:00;1.32709;1.32709;1.32705;1.32705
2018.11.29 01:21:00;1.32705;1.32705;1.32705;1.32705
2018.11.29 01:22:00;1.32705;1.32705;1.32705;1.32705
2018.11.29 01:23:00;1.32705;1.32718;1.32705;1.32717
2018.11.29 01:24:00;1.32717;1.32718;1.32715;1.32715
2018.11.29 01:25:00;1.32717;1.32718;1.32715;1.32716
2018.11.29 01:26:00;1.32715;1.32716;1.32705;1.32705
2018.11.29 01:27:00;1.32706;1.32709;1.32705;1.32706
2018.11.29 01:28:00;1.32706;1.32709;1.32705;1.32707
2018.11.29 01:29:00;1.32707;1.32708;1.32705;1.32705
2018.11.29 01:30:00;1.32707;1.32709;1.32705;1.32707
2018.11.29 01:31:00;1.32706;1.32713;1.32705;1.32707
2018.11.29 01:32:00;1.32708;1.32715;1.32707;1.32708
2018.11.29 01:33:00;1.32708;1.32715;1.32708;1.32711
2018.11.29 01:34:00;1.32711;1.32715;1.32711;1.32714
2018.11.29 01:35:00;1.32712;1.32712;1.32704;1.32710
2018.11.29 01:36:00;1.32709;1.32713;1.32709;1.32711
2018.11.29 01:37:00;1.32711;1.32711;1.32706;1.32710
2018.11.29 01:38:00;1.32711;1.32712;1.32708;1.32711
2018.11.29 01:39:00;1.32708;1.32711;1.32704;1.32710
2018.11.29 01:40:00;1.32710;1.32712;1.32709;1.32709
2018.11.29 01:41:00;1.32710;1.32714;1.32710;1.32714
2018.11.29 01:42:00;1.32714;1.32714;1.32714;1.32714
2018.11.29 01:43:00;1.32714;1.32714;1.32714;1.32714
2018.11.29 01:44:00;1.32714;1.32715;1.32714;1.32714
2018.11.29 01:45:00;1.32712;1.32714;1.32712;1.32714
2018.11.29 01:46:00;1.32714;1.32715;1.32714;1.32714
2018.11.29 01:47:00;1.32714;1.32714;1.32714;1.32714
2018.11.29 01:48:00;1.32715;1.32744;1.32715;1.32742
2018.11.29 01:49:00;1.32742;1.32746;1.32740;1.32742
2018.11.29 01:50:00;1.32744;1.32750;1.32743;1.32746
2018.11.29 01:51:00;1.32745;1.32748;1.32744;1.32747
2018.11.29 01:52:00;1.32746;1.32747;1.32736;1.32736
2018.11.29 01:53:00;1.32737;1.32737;1.32730;1.32734
2018.11.29 01:54:00;1.32733;1.32735;1.32733;1.32734
2018.11.29 01:55:00;1.32735;1.32740;1.32734;1.32734
2018.11.29 01:56:00;1.32736;1.32736;1.32734;1.32734
2018.11.29 01:57:00;1.32737;1.32755;1.32737;1.32755
2018.11.29 01:58:00;1.32756;1.32764;1.32756;1.32763
2018.11.29 01:59:00;1.32764;1.32766;1.32762;1.32763
2018.11.29 02:00:00;1.32764;1.32767;1.32762;1.32764
2018.11.29 02:01:00;1.32764;1.32764;1.32743;1.32745
2018.11.29 02:02:00;1.32744;1.32744;1.32733;1.32733
2018.11.29 02:03:00;1.32733;1.32735;1.32733;1.32733
2018.11.29 02:04:00;1.32733;1.32733;1.32733;1.32733
2018.11.29 02:05:00;1.32733;1.32734;1.32727;1.32729
2018.11.29 02:06:00;1.32728;1.32729;1.32713;1.32722
2018.11.29 02:07:00;1.32723;1.32738;1.32722;1.32738
2018.11.29 02:08:00;1.32737;1.32737;1.32719;1.32719
2018.11.29 02:09:00;1.32719;1.32724;1.32718;1.32724
2018.11.29 02:10:00;1.32724;1.32734;1.32723;1.32731
2018.11.29 02:11:00;1.32731;1.32747;1.32731;1.32745
2018.11.29 02:12:00;1.32746;1.32747;1.32746;1.32747
2018.11.29 02:13:00;1.32748;1.32748;1.32742;1.32743
2018.11.29 02:14:00;1.32744;1.32762;1.32744;1.32760
2018.11.29 02:15:00;1.32758;1.32765;1.32752;1.32765
2018.11.29 02:16:00;1.32765;1.32765;1.32755;1.32763
2018.11.29 02:17:00;1.32763;1.32763;1.32755;1.32755
2018.11.29 02:18:00;1.32756;1.32756;1.32752;1.32755
2018.11.29 02:19:00;1.32755;1.32757;1.32754;1.32755
2018.11.29 02:20:00;1.32757;1.32758;1.32756;1.32757
2018.11.29 02:21:00;1.32756;1.32759;1.32755;1.32758
2018.10.19 23:46:00;1.31052;1.31072;1.31052;1.31066
2018.10.19 23:47:00;1.31068;1.31073;1.31067;1.31071
2018.11.29 02:22:00;1.32766;1.32783;1.32765;1.32773
2018.11.29 02:23:00;1.32774;1.32783;1.32774;1.32780
2018.11.29 02:24:00;1.32781;1.32787;1.32779;1.32787
2018.11.29 02:25:00;1.32785;1.32785;1.32772;1.32783
2018.11.29 02:26:00;1.32784;1.32784;1.32781;1.32783
2018.11.29 02:27:00;1.32784;1.32793;1.32784;1.32793
2018.11.29 02:28:00;1.32792;1.32793;1.32791;1.32791
2018.11.29 02:29:00;1.32790;1.32793;1.32784;1.32790
2018.11.29 02:30:00;1.32790;1.32799;1.32773;1.32783
2018.11.29 02:31:00;1.32782;1.32783;1.32766;1.32783
2018.11.29 02:32:00;1.32784;1.32799;1.32781;1.32782
2018.11.29 02:33:00;1.32783;1.32791;1.32774;1.32778
2018.11.29 02:34:00;1.32779;1.32793;1.32777;1.32789
2018.11.29 02:35:00;1.32781;1.32784;1.32780;1.32783
2018.11.29 02:36:00;1.32784;1.32784;1.32781;1.32781
2018.11.29 02:37:00;1.32780;1.32781;1.32772;1.32773
2018.11.29 02:38:00;1.32772;1.32776;1.32755;1.32763
2018.11.29 02:39:00;1.32764;1.32764;1.32755;1.32758
2018.11.29 02:40:00;1.32758;1.32769;1.32754;1.32765
2018.11.29 02:41:00;1.32766;1.32774;1.32764;1.32773
2018.11.29 02:42:00;1.32775;1.32775;1.32757;1.32769
2018.11.29 02:43:00;1.32770;1.32781;1.32769;1.32781
2018.11.29 02:44:00;1.32781;1.32781;1.32780;1.32781
2018.11.29 02:45:00;1.32780;1.32781;1.32779;1.32780
2018.11.29 02:46:00;1.32780;1.32791;1.32780;1.32790
2018.11.29 02:47:00;1.32791;1.32791;1.32785;1.32785
2018.10.19 23:47:00;1.31068;1.31073;1.31067;1.31071
2018.11.29 02:52:00;1.32781;1.32786;1.32772;1.32773
2018.11.29 02:53:00;1.32772;1.32799;1.32772;1.32797
2018.11.29 02:54:00;1.32795;1.32818;1.32791;1.32806
2018.11.29 02:55:00;1.32807;1.32827;1.32807;1.32811
2018.11.29 02:56:00;1.32810;1.32822;1.32793;1.32818
2018.11.29 02:57:00;1.32819;1.32819;1.32808;1.32816
2018.11.29 02:58:00;1.32816;1.32820;1.32807;1.32807
2018.11.29 02:59:00;1.32808;1.32811;1.32802;1.32810
2018.11.29 03:00:00;1.32809;1.32815;1.32781;1.32783
2018.11.29 03:01:00;1.32785;1.32785;1.32772;1.32781
2018.11.29 03:02:00;1.32781;1.32791;1.32773;1.32790
2018.11.29 03:03:00;1.32790;1.32790;1.32776;1.32781
2018.11.29 03:04:00;1.32781;1.32789;1.32765;1.32787
2018.11.29 03:05:00;1.32787;1.32790;1.32784;1.32788
2018.11.29 03:06:00;1.32788;1.32788;1.32784;1.32786
2018.11.29 03:07:00;1.32786;1.32792;1.32786;1.32792
2018.11.29 03:08:00;1.32796;1.32805;1.32796;1.32799
2018.11.29 03:09:00;1.32799;1.32804;1.32799;1.32799
2018.11.29 03:10:00;1.32800;1.32800;1.32799;1.32799
2018.11.29 03:11:00;1.32799;1.32799;1.32790;1.32791
2018.11.29 03:12:00;1.32790;1.32791;1.32786;1.32790
2018.11.29 03:13:00;1.32789;1.32793;1.32785;1.32789
2018.11.29 03:14:00;1.32790;1.32791;1.32781;1.32783
2018.11.29 03:15:00;1.32785;1.32802;1.32785;1.32789
2018.11.29 03:16:00;1.32789;1.32793;1.32785;1.32792
2018.11.29 03:17:00;1.32791;1.32800;1.32791;1.32800
2018.11.29 03:18:00;1.32799;1.32808;1.32799;1.32800
2018.11.29 03:19:00;1.32800;1.32800;1.32798;1.32799
2018.11.29 03:20:00;1.32798;1.32799;1.32790;1.32790
2018.11.29 03:21:00;1.32796;1.32800;1.32796;1.32799
2018.11.29 03:22:00;1.32799;1.32800;1.32791;1.32796
2018.11.29 03:23:00;1.32797;1.32798;1.32791;1.32791
2018.11.29 03:24:00;1.32791;1.32800;1.32790;1.32799
2018.11.29 03:25:00;1.32799;1.32801;1.32799;1.32801
2018.11.29 03:26:00;1.32802;1.32808;1.32802;1.32807
2018.11.29 03:27:00;1.32808;1.32814;1.32806;1.32813
2018.11.29 03:28:00;1.32810;1.32816;1.32807;1.32815
2018.11.29 03:29:00;1.32816;1.32817;1.32808;1.32809
2018.11.29 03:31:00;1.32808;1.32808;1.32790;1.32791
2018.11.29 03:32:00;1.32793;1.32805;1.32792;1.32804
2018.11.29 03:33:00;1.32805;1.32806;1.32797;1.32798
2018.11.29 03:34:00;1.32799;1.32800;1.32798;1.32799
2018.11.29 03:35:00;1.32799;1.32800;1.32798;1.32799
2018.11.29 03:36:00;1.32800;1.32800;1.32798;1.32800
2018.11.29 03:37:00;1.32799;1.32800;1.32792;1.32792
2018.11.29 03:38:00;1.32793;1.32793;1.32789;1.32790
2018.11.29 03:39:00;1.32789;1.32790;1.32782;1.32790
2018.11.29 03:40:00;1.32788;1.32793;1.32787;1.32793
2018.11.29 03:41:00;1.32792;1.32792;1.32789;1.32790
2018.11.29 03:42:00;1.32789;1.32817;1.32789;1.32817
2018.11.29 03:43:00;1.32817;1.32826;1.32815;1.32826
2018.11.29 03:44:00;1.32826;1.32827;1.32806;1.32817
2018.11.29 03:45:00;1.32818;1.32827;1.32816;1.32827
2018.11.29 03:46:00;1.32828;1.32831;1.32824;1.32828
2018.11.29 03:47:00;1.32827;1.32835;1.32826;1.32835
2018.11.29 03:48:00;1.32834;1.32834;1.32823;1.32826
2018.11.29 03:49:00;1.32825;1.32834;1.32825;1.32833
2018.11.29 03:50:00;1.32832;1.32832;1.32814;1.32816
2018.11.29 03:51:00;1.32817;1.32817;1.32815;1.32815
2018.11.29 03:52:00;1.32816;1.32816;1.32814;1.32816
2018.11.29 03:53:00;1.32815;1.32815;1.32809;1.32814
2018.11.29 03:54:00;1.32815;1.32815;1.32807;1.32811
2018.11.29 03:55:00;1.32810;1.32811;1.32803;1.32808
2018.11.29 03:56:00;1.32809;1.32809;1.32807;1.32809
2018.11.29 03:57:00;1.32809;1.32817;1.32809;1.32814
2018.11.29 03:58:00;1.32813;1.32834;1.32813;1.32831
2018.11.29 03:59:00;1.32827;1.32846;1.32826;1.32843
2018.11.29 04:00:00;1.32841;1.32864;1.32826;1.32836
2018.11.29 04:01:00;1.32836;1.32852;1.32834;1.32848
2018.11.29 04:02:00;1.32849;1.32851;1.32841;1.32842
2018.11.29 04:03:00;1.32841;1.32845;1.32826;1.32831
2018.11.29 04:04:00;1.32831;1.32831;1.32817;1.32824
2018.11.29 04:06:00;1.32825;1.32834;1.32825;1.32833
2018.11.29 04:07:00;1.32833;1.32843;1.32833;1.32839
2018.11.29 04:08:00;1.32838;1.32841;1.32818;1.32819
2018.11.29 04:09:00;1.32821;1.32831;1.32817;1.32831
2018.11.29 04:10:00;1.32831;1.32842;1.32831;1.32841
2018.11.29 04:11:00;1.32842;1.32842;1.32823;1.32824
2018.11.29 04:12:00;1.32824;1.32828;1.32824;1.32827
2018.11.29 04:13:00;1.32826;1.32827;1.32822;1.32822
2018.11.29 04:14:00;1.32823;1.32823;1.32815;1.32819
2018.11.29 04:15:00;1.32821;1.32825;1.32809;1.32810
2018.11.29 04:16:00;1.32811;1.32825;1.32808;1.32808
2018.11.29 04:17:00;1.32808;1.32808;1.32800;1.32806
2018.11.29 04:18:00;1.32805;1.32815;1.32799;1.32814
2018.11.29 04:19:00;1.32814;1.32815;1.32808;1.32811
2018.11.29 04:20:00;1.32810;1.32810;1.32798;1.32799
2018.11.29 04:21:00;1.32797;1.32800;1.32797;1.32798
2018.11.29 04:22:00;1.32799;1.32801;1.32797;1.32799
2018.11.29 04:23:00;1.32800;1.32802;1.32799;1.32800
2018.11.29 04:24:00;1.32799;1.32807;1.32797;1.32807
2018.11.29 04:25:00;1.32807;1.32818;1.32807;1.32817
2018.11.29 04:26:00;1.32818;1.32824;1.32817;1.32818
2018.11.29 04:27:00;1.32818;1.32826;1.32816;1.32826
2018.11.29 04:28:00;1.32824;1.32827;1.32795;1.32798
2018.11.29 04:29:00;1.32799;1.32801;1.32798;1.32800
2018.11.29 04:30:00;1.32799;1.32815;1.32795;1.32796
2018.11.29 04:31:00;1.32795;1.32818;1.32792;1.32801
2018.11.29 04:32:00;1.32800;1.32820;1.32799;1.32808
2018.11.29 04:33:00;1.32807;1.32815;1.32807;1.32808
2018.11.29 04:34:00;1.32810;1.32810;1.32808;1.32808
2018.11.29 04:35:00;1.32807;1.32808;1.32799;1.32802
2018.11.29 04:36:00;1.32801;1.32817;1.32798;1.32809
2018.11.29 04:37:00;1.32808;1.32829;1.32793;1.32811
2018.11.29 04:38:00;1.32815;1.32816;1.32808;1.32811
2018.11.29 04:39:00;1.32812;1.32823;1.32796;1.32802
2018.11.29 04:40:00;1.32800;1.32831;1.32798;1.32825
2018.11.29 04:41:00;1.32822;1.32832;1.32798;1.32805
2018.11.29 04:42:00;1.32806;1.32818;1.32789;1.32818
2018.11.29 04:43:00;1.32817;1.32818;1.32811;1.32817
2018.11.29 04:44:00;1.32817;1.32818;1.32810;1.32816
2018.11.29 04:45:00;1.32817;1.32822;1.32797;1.32797
2018.11.29 04:46:00;1.32796;1.32838;1.32793;1.32816
2018.11.29 04:47:00;1.32817;1.32832;1.32797;1.32801
2018.11.29 04:48:00;1.32807;1.32825;1.32807;1.32825
2018.11.29 04:49:00;1.32825;1.32831;1.32796;1.32801
2018.11.29 04:50:00;1.32800;1.32834;1.32797;1.32830
2018.11.29 04:51:00;1.32829;1.32835;1.32810;1.32828
2018.11.29 04:52:00;1.32829;1.32845;1.32829;1.32832
2018.11.29 04:53:00;1.32833;1.32841;1.32810;1.32826
2018.11.29 04:54:00;1.32824;1.32833;1.32806;1.32822
2018.11.29 04:55:00;1.32823;1.32832;1.32822;1.32832
2018.11.29 04:56:00;1.32830;1.32838;1.32807;1.32810
2018.11.29 04:57:00;1.32811;1.32842;1.32808;1.32822
2018.11.29 04:58:00;1.32822;1.32845;1.32820;1.32825
2018.11.29 04:59:00;1.32824;1.32831;1.32824;1.32825
2018.11.29 05:00:00;1.32825;1.32830;1.32817;1.32819
2018.11.29 05:01:00;1.32820;1.32826;1.32805;1.32821
2018.11.29 05:02:00;1.32821;1.32822;1.32799;1.32814
2018.11.29 05:03:00;1.32816;1.32826;1.32806;1.32806
2018.11.29 05:04:00;1.32806;1.32827;1.32799;1.32810
2018.11.29 05:05:00;1.32811;1.32814;1.32798;1.32814
2018.11.29 05:06:00;1.32815;1.32825;1.32788;1.32789
2018.11.29 05:07:00;1.32790;1.32818;1.32783;1.32799
2018.11.29 05:08:00;1.32799;1.32822;1.32788;1.32797
2018.11.29 05:09:00;1.32798;1.32801;1.32788;1.32800
2018.11.29 05:10:00;1.32799;1.32825;1.32796;1.32807
2018.11.29 05:12:00;1.32808;1.32823;1.32787;1.32805
2018.11.29 05:13:00;1.32806;1.32823;1.32798;1.32801
2018.11.29 05:14:00;1.32801;1.32815;1.32782;1.32799
2018.11.29 05:15:00;1.32798;1.32809;1.32788;1.32801
2018.11.29 05:16:00;1.32800;1.32801;1.32770;1.32791
2018.11.29 05:17:00;1.32790;1.32805;1.32776;1.32805
2018.11.29 05:18:00;1.32802;1.32809;1.32789;1.32789
2018.11.29 05:19:00;1.32790;1.32799;1.32769;1.32770
2018.11.29 05:20:00;1.32771;1.32787;1.32751;1.32784
2018.11.29 05:21:00;1.32785;1.32795;1.32762;1.32780
2018.11.29 05:22:00;1.32779;1.32780;1.32747;1.32748
2018.11.29 05:23:00;1.32748;1.32772;1.32748;1.32750
2018.11.29 05:24:00;1.32751;1.32773;1.32744;1.32744
2018.11.29 05:25:00;1.32743;1.32773;1.32742;1.32754
2018.11.29 05:26:00;1.32751;1.32782;1.32749;1.32764
2018.11.29 05:27:00;1.32765;1.32781;1.32750;1.32759
2018.11.29 05:28:00;1.32758;1.32769;1.32753;1.32764
2018.11.29 05:29:00;1.32765;1.32774;1.32765;1.32774
2018.11.29 05:30:00;1.32773;1.32782;1.32759;1.32778
2018.11.29 05:31:00;1.32779;1.32784;1.32767;1.32776
2018.11.29 05:32:00;1.32778;1.32786;1.32764;1.32771
2018.11.29 05:33:00;1.32766;1.32776;1.32747;1.32757
2018.11.29 05:34:00;1.32760;1.32765;1.32752;1.32765
2018.11.29 05:35:00;1.32767;1.32772;1.32747;1.32772
2018.11.29 05:36:00;1.32772;1.32773;1.32748;1.32757
2018.11.29 05:37:00;1.32757;1.32764;1.32756;1.32759
2018.11.29 05:38:00;1.32759;1.32781;1.32759;1.32765
2018.11.29 05:39:00;1.32762;1.32768;1.32757;1.32760
2018.11.29 05:40:00;1.32761;1.32761;1.32757;1.32758
2018.11.29 05:41:00;1.32758;1.32771;1.32747;1.32763
2018.11.29 05:42:00;1.32765;1.32783;1.32758;1.32767
2018.11.29 05:43:00;1.32767;1.32770;1.32766;1.32766
2018.11.29 05:44:00;1.32768;1.32771;1.32761;1.32764
2018.11.29 05:45:00;1.32764;1.32773;1.32757;1.32773
2018.11.29 05:46:00;1.32774;1.32778;1.32771;1.32771
2018.11.29 05:47:00;1.32772;1.32772;1.32771;1.32771
2018.11.29 05:48:00;1.32771;1.32772;1.32771;1.32772
2018.11.29 05:49:00;1.32771;1.32772;1.32771;1.32771
2018.11.29 05:50:00;1.32771;1.32775;1.32771;1.32772
2018.11.29 05:51:00;1.32772;1.32774;1.32771;1.32772
2018.11.29 05:52:00;1.32772;1.32772;1.32751;1.32751
2018.11.29 05:53:00;1.32752;1.32760;1.32747;1.32747
2018.11.29 05:54:00;1.32747;1.32753;1.32745;1.32746
2018.11.29 05:55:00;1.32745;1.32745;1.32736;1.32736
